{
  "skip": true,
  "disabledIfNotEnabledImplicitly": true,
  "type": "mongodb",
  "url": "mongodb+srv://kkkakde:yRUlJVieztKktfvh@cluster0.gy1qn.mongodb.net/ElBurroRestaurant?retryWrites=true&w=majority",
  "useNewUrlParser": true,
  "useUnifiedTopology": true,
  "synchronize": true,
  "logging": true,
  "entities": ["src/entity/**/*.ts"],
  "migrations": ["src/migration/**/*.ts"],
  "subscribers": ["src/subscriber/**/*.ts"],
  "cli": {
    "entitiesDir": "src/entity",
    "migrationsDir": "src/migration",
    "subscribersDir": "src/subscriber"
  }
}

